{
    "manifestVersion": 1,
    "deployments": {
        "aspNetCoreWeb": [{
                "name": "alcatraz",
                "parameters": {
                    "appBundle": ".",
                    "iisPath": "/",
                    "iisWebSite": "Default Web Site"
                }
            }
        ]
    }
}
